{
  "data": [
    {
      "Address": "72 rue Ernest Renan",
      "phoneNumber": "02.94.09.36.37",
      "minimumRequiredPassLevel": 1,
      "minimumRequiredAge": 0
    },
    {
      "Address": " 46 rue Lenotre",
      "phoneNumber": "03.80.40.00.47",
      "minimumRequiredPassLevel": 2,
      "minimumRequiredAge": 16
    },
    {
      "Address": "9 rue Marie de Médicis",
      "phoneNumber": "05.73.41.72.47",
      "minimumRequiredPassLevel": 3,
      "minimumRequiredAge": 18
    },
    {
      "Address": "91 avenue du Marechal Juin",
      "phoneNumber": "04.44.73.62.83",
      "minimumRequiredPassLevel": 1,
      "minimumRequiredAge": 22
    },
    {
      "Address": "32 Avenue des Tuileries",
      "phoneNumber": "03.54.21.42.59",
      "minimumRequiredPassLevel": 2,
      "minimumRequiredAge": 30
    },
    {
      "Address": "68 rue du Paillle en queue",
      "phoneNumber": "01.09.91.85.16",
      "minimumRequiredPassLevel": 3,
      "minimumRequiredAge": 12
    }
  ]
}
